%YAML 1.1
%TAG !u! tag:unity3d.com,2011:
--- !u!1045 &1
EditorBuildSettings:
  m_ObjectHideFlags: 0
  serializedVersion: 2
  m_Scenes:
  - enabled: 1
    path: Assets/Scenes/Intro.unity
    guid: 7fdbf00a96cbb524d924b95f0041ba83
  - enabled: 1
    path: Assets/Scenes/Gameplay.unity
    guid: 99c9720ab356a0642a771bea13969a05
  - enabled: 1
    path: Assets/Scenes/Ending.unity
    guid: e094c72fdb28d3a4ebb024710876f715
  m_configObjects: {}
