%YAML 1.1
%TAG !u! tag:unity3d.com,2011:
--- !u!1001 &100100000
Prefab:
  m_ObjectHideFlags: 1
  serializedVersion: 2
  m_Modification:
    m_TransformParent: {fileID: 0}
    m_Modifications: []
    m_RemovedComponents: []
  m_SourcePrefab: {fileID: 0}
  m_RootGameObject: {fileID: 1096465315764582}
  m_IsPrefabAsset: 1
--- !u!1 &1096465315764582
GameObject:
  m_ObjectHideFlags: 0
  m_CorrespondingSourceObject: {fileID: 0}
  m_PrefabInternal: {fileID: 100100000}
  serializedVersion: 6
  m_Component:
  - component: {fileID: 4560407724928580}
  - component: {fileID: 2569400267182503934}
  m_Layer: 31
  m_Name: Tiles
  m_TagString: Untagged
  m_Icon: {fileID: 0}
  m_NavMeshLayer: 0
  m_StaticEditorFlags: 0
  m_IsActive: 1
--- !u!1 &1767015077386974
GameObject:
  m_ObjectHideFlags: 0
  m_CorrespondingSourceObject: {fileID: 0}
  m_PrefabInternal: {fileID: 100100000}
  serializedVersion: 6
  m_Component:
  - component: {fileID: 4083903397276670}
  - component: {fileID: 8195094282404990750}
  - component: {fileID: 3664157343533970056}
  m_Layer: 31
  m_Name: Layer1
  m_TagString: Untagged
  m_Icon: {fileID: 0}
  m_NavMeshLayer: 0
  m_StaticEditorFlags: 0
  m_IsActive: 1
--- !u!4 &4083903397276670
Transform:
  m_ObjectHideFlags: 1
  m_CorrespondingSourceObject: {fileID: 0}
  m_PrefabInternal: {fileID: 100100000}
  m_GameObject: {fileID: 1767015077386974}
  m_LocalRotation: {x: -0, y: -0, z: -0, w: 1}
  m_LocalPosition: {x: 0, y: 0, z: 0}
  m_LocalScale: {x: 1, y: 1, z: 1}
  m_Children: []
  m_Father: {fileID: 4560407724928580}
  m_RootOrder: 0
  m_LocalEulerAnglesHint: {x: 0, y: 0, z: 0}
--- !u!4 &4560407724928580
Transform:
  m_ObjectHideFlags: 1
  m_CorrespondingSourceObject: {fileID: 0}
  m_PrefabInternal: {fileID: 100100000}
  m_GameObject: {fileID: 1096465315764582}
  m_LocalRotation: {x: 0, y: 0, z: 0, w: 1}
  m_LocalPosition: {x: 0, y: 0, z: 0}
  m_LocalScale: {x: 1, y: 1, z: 1}
  m_Children:
  - {fileID: 4083903397276670}
  m_Father: {fileID: 0}
  m_RootOrder: 0
  m_LocalEulerAnglesHint: {x: 0, y: 0, z: 0}
--- !u!114 &114277194261588088
MonoBehaviour:
  m_ObjectHideFlags: 0
  m_CorrespondingSourceObject: {fileID: 0}
  m_PrefabInternal: {fileID: 0}
  m_GameObject: {fileID: 0}
  m_Enabled: 1
  m_EditorHideFlags: 1
  m_Script: {fileID: 12395, guid: 0000000000000000e000000000000000, type: 0}
  m_Name: Palette Settings
  m_EditorClassIdentifier: 
  cellSizing: 0
--- !u!156049354 &2569400267182503934
Grid:
  m_ObjectHideFlags: 1
  m_CorrespondingSourceObject: {fileID: 0}
  m_PrefabInternal: {fileID: 100100000}
  m_GameObject: {fileID: 1096465315764582}
  m_Enabled: 1
  m_CellSize: {x: 1, y: 1, z: 0}
  m_CellGap: {x: 0, y: 0, z: 0}
  m_CellLayout: 0
  m_CellSwizzle: 0
--- !u!483693784 &3664157343533970056
TilemapRenderer:
  m_ObjectHideFlags: 1
  m_CorrespondingSourceObject: {fileID: 0}
  m_PrefabInternal: {fileID: 100100000}
  m_GameObject: {fileID: 1767015077386974}
  m_Enabled: 0
  m_CastShadows: 0
  m_ReceiveShadows: 0
  m_DynamicOccludee: 0
  m_MotionVectors: 1
  m_LightProbeUsage: 0
  m_ReflectionProbeUsage: 0
  m_RenderingLayerMask: 4294967295
  m_Materials:
  - {fileID: 10754, guid: 0000000000000000f000000000000000, type: 0}
  m_StaticBatchInfo:
    firstSubMesh: 0
    subMeshCount: 0
  m_StaticBatchRoot: {fileID: 0}
  m_ProbeAnchor: {fileID: 0}
  m_LightProbeVolumeOverride: {fileID: 0}
  m_ScaleInLightmap: 1
  m_PreserveUVs: 0
  m_IgnoreNormalsForChartDetection: 0
  m_ImportantGI: 0
  m_StitchLightmapSeams: 0
  m_SelectedEditorRenderState: 0
  m_MinimumChartSize: 4
  m_AutoUVMaxDistance: 0.5
  m_AutoUVMaxAngle: 89
  m_LightmapParameters: {fileID: 0}
  m_SortingLayerID: 0
  m_SortingLayer: 0
  m_SortingOrder: 0
  m_ChunkSize: {x: 32, y: 32, z: 32}
  m_ChunkCullingBounds: {x: 0, y: 0, z: 0}
  m_MaxChunkCount: 16
  m_MaxFrameAge: 16
  m_SortOrder: 0
  m_DetectChunkCullingBounds: 0
  m_MaskInteraction: 0
--- !u!1839735485 &8195094282404990750
Tilemap:
  m_ObjectHideFlags: 1
  m_CorrespondingSourceObject: {fileID: 0}
  m_PrefabInternal: {fileID: 100100000}
  m_GameObject: {fileID: 1767015077386974}
  m_Enabled: 1
  m_Tiles:
  - first: {x: -1, y: -7, z: 0}
    second:
      m_TileIndex: 63
      m_TileSpriteIndex: 63
      m_TileMatrixIndex: 0
      m_TileColorIndex: 0
      m_ObjectToInstantiate: {fileID: 0}
      m_TileFlags: 1
      m_ColliderType: 1
  - first: {x: 0, y: -7, z: 0}
    second:
      m_TileIndex: 64
      m_TileSpriteIndex: 64
      m_TileMatrixIndex: 0
      m_TileColorIndex: 0
      m_ObjectToInstantiate: {fileID: 0}
      m_TileFlags: 1
      m_ColliderType: 1
  - first: {x: -1, y: -6, z: 0}
    second:
      m_TileIndex: 54
      m_TileSpriteIndex: 54
      m_TileMatrixIndex: 0
      m_TileColorIndex: 0
      m_ObjectToInstantiate: {fileID: 0}
      m_TileFlags: 1
      m_ColliderType: 1
  - first: {x: 0, y: -6, z: 0}
    second:
      m_TileIndex: 55
      m_TileSpriteIndex: 55
      m_TileMatrixIndex: 0
      m_TileColorIndex: 0
      m_ObjectToInstantiate: {fileID: 0}
      m_TileFlags: 1
      m_ColliderType: 1
  - first: {x: 1, y: -6, z: 0}
    second:
      m_TileIndex: 56
      m_TileSpriteIndex: 56
      m_TileMatrixIndex: 0
      m_TileColorIndex: 0
      m_ObjectToInstantiate: {fileID: 0}
      m_TileFlags: 1
      m_ColliderType: 1
  - first: {x: 2, y: -6, z: 0}
    second:
      m_TileIndex: 57
      m_TileSpriteIndex: 57
      m_TileMatrixIndex: 0
      m_TileColorIndex: 0
      m_ObjectToInstantiate: {fileID: 0}
      m_TileFlags: 1
      m_ColliderType: 1
  - first: {x: 3, y: -6, z: 0}
    second:
      m_TileIndex: 58
      m_TileSpriteIndex: 58
      m_TileMatrixIndex: 0
      m_TileColorIndex: 0
      m_ObjectToInstantiate: {fileID: 0}
      m_TileFlags: 1
      m_ColliderType: 1
  - first: {x: 4, y: -6, z: 0}
    second:
      m_TileIndex: 59
      m_TileSpriteIndex: 59
      m_TileMatrixIndex: 0
      m_TileColorIndex: 0
      m_ObjectToInstantiate: {fileID: 0}
      m_TileFlags: 1
      m_ColliderType: 1
  - first: {x: 5, y: -6, z: 0}
    second:
      m_TileIndex: 60
      m_TileSpriteIndex: 60
      m_TileMatrixIndex: 0
      m_TileColorIndex: 0
      m_ObjectToInstantiate: {fileID: 0}
      m_TileFlags: 1
      m_ColliderType: 1
  - first: {x: 6, y: -6, z: 0}
    second:
      m_TileIndex: 61
      m_TileSpriteIndex: 61
      m_TileMatrixIndex: 0
      m_TileColorIndex: 0
      m_ObjectToInstantiate: {fileID: 0}
      m_TileFlags: 1
      m_ColliderType: 1
  - first: {x: 7, y: -6, z: 0}
    second:
      m_TileIndex: 62
      m_TileSpriteIndex: 62
      m_TileMatrixIndex: 0
      m_TileColorIndex: 0
      m_ObjectToInstantiate: {fileID: 0}
      m_TileFlags: 1
      m_ColliderType: 1
  - first: {x: -1, y: -5, z: 0}
    second:
      m_TileIndex: 45
      m_TileSpriteIndex: 45
      m_TileMatrixIndex: 0
      m_TileColorIndex: 0
      m_ObjectToInstantiate: {fileID: 0}
      m_TileFlags: 1
      m_ColliderType: 1
  - first: {x: 0, y: -5, z: 0}
    second:
      m_TileIndex: 46
      m_TileSpriteIndex: 46
      m_TileMatrixIndex: 0
      m_TileColorIndex: 0
      m_ObjectToInstantiate: {fileID: 0}
      m_TileFlags: 1
      m_ColliderType: 1
  - first: {x: 1, y: -5, z: 0}
    second:
      m_TileIndex: 47
      m_TileSpriteIndex: 47
      m_TileMatrixIndex: 0
      m_TileColorIndex: 0
      m_ObjectToInstantiate: {fileID: 0}
      m_TileFlags: 1
      m_ColliderType: 1
  - first: {x: 2, y: -5, z: 0}
    second:
      m_TileIndex: 48
      m_TileSpriteIndex: 48
      m_TileMatrixIndex: 0
      m_TileColorIndex: 0
      m_ObjectToInstantiate: {fileID: 0}
      m_TileFlags: 1
      m_ColliderType: 1
  - first: {x: 3, y: -5, z: 0}
    second:
      m_TileIndex: 49
      m_TileSpriteIndex: 49
      m_TileMatrixIndex: 0
      m_TileColorIndex: 0
      m_ObjectToInstantiate: {fileID: 0}
      m_TileFlags: 1
      m_ColliderType: 1
  - first: {x: 4, y: -5, z: 0}
    second:
      m_TileIndex: 50
      m_TileSpriteIndex: 50
      m_TileMatrixIndex: 0
      m_TileColorIndex: 0
      m_ObjectToInstantiate: {fileID: 0}
      m_TileFlags: 1
      m_ColliderType: 1
  - first: {x: 5, y: -5, z: 0}
    second:
      m_TileIndex: 51
      m_TileSpriteIndex: 51
      m_TileMatrixIndex: 0
      m_TileColorIndex: 0
      m_ObjectToInstantiate: {fileID: 0}
      m_TileFlags: 1
      m_ColliderType: 1
  - first: {x: 6, y: -5, z: 0}
    second:
      m_TileIndex: 52
      m_TileSpriteIndex: 52
      m_TileMatrixIndex: 0
      m_TileColorIndex: 0
      m_ObjectToInstantiate: {fileID: 0}
      m_TileFlags: 1
      m_ColliderType: 1
  - first: {x: 7, y: -5, z: 0}
    second:
      m_TileIndex: 53
      m_TileSpriteIndex: 53
      m_TileMatrixIndex: 0
      m_TileColorIndex: 0
      m_ObjectToInstantiate: {fileID: 0}
      m_TileFlags: 1
      m_ColliderType: 1
  - first: {x: -1, y: -4, z: 0}
    second:
      m_TileIndex: 36
      m_TileSpriteIndex: 36
      m_TileMatrixIndex: 0
      m_TileColorIndex: 0
      m_ObjectToInstantiate: {fileID: 0}
      m_TileFlags: 1
      m_ColliderType: 1
  - first: {x: 0, y: -4, z: 0}
    second:
      m_TileIndex: 37
      m_TileSpriteIndex: 37
      m_TileMatrixIndex: 0
      m_TileColorIndex: 0
      m_ObjectToInstantiate: {fileID: 0}
      m_TileFlags: 1
      m_ColliderType: 1
  - first: {x: 1, y: -4, z: 0}
    second:
      m_TileIndex: 38
      m_TileSpriteIndex: 38
      m_TileMatrixIndex: 0
      m_TileColorIndex: 0
      m_ObjectToInstantiate: {fileID: 0}
      m_TileFlags: 1
      m_ColliderType: 1
  - first: {x: 2, y: -4, z: 0}
    second:
      m_TileIndex: 39
      m_TileSpriteIndex: 39
      m_TileMatrixIndex: 0
      m_TileColorIndex: 0
      m_ObjectToInstantiate: {fileID: 0}
      m_TileFlags: 1
      m_ColliderType: 1
  - first: {x: 3, y: -4, z: 0}
    second:
      m_TileIndex: 40
      m_TileSpriteIndex: 40
      m_TileMatrixIndex: 0
      m_TileColorIndex: 0
      m_ObjectToInstantiate: {fileID: 0}
      m_TileFlags: 1
      m_ColliderType: 1
  - first: {x: 4, y: -4, z: 0}
    second:
      m_TileIndex: 41
      m_TileSpriteIndex: 41
      m_TileMatrixIndex: 0
      m_TileColorIndex: 0
      m_ObjectToInstantiate: {fileID: 0}
      m_TileFlags: 1
      m_ColliderType: 1
  - first: {x: 5, y: -4, z: 0}
    second:
      m_TileIndex: 42
      m_TileSpriteIndex: 42
      m_TileMatrixIndex: 0
      m_TileColorIndex: 0
      m_ObjectToInstantiate: {fileID: 0}
      m_TileFlags: 1
      m_ColliderType: 1
  - first: {x: 6, y: -4, z: 0}
    second:
      m_TileIndex: 43
      m_TileSpriteIndex: 43
      m_TileMatrixIndex: 0
      m_TileColorIndex: 0
      m_ObjectToInstantiate: {fileID: 0}
      m_TileFlags: 1
      m_ColliderType: 1
  - first: {x: 7, y: -4, z: 0}
    second:
      m_TileIndex: 44
      m_TileSpriteIndex: 44
      m_TileMatrixIndex: 0
      m_TileColorIndex: 0
      m_ObjectToInstantiate: {fileID: 0}
      m_TileFlags: 1
      m_ColliderType: 1
  - first: {x: -1, y: -3, z: 0}
    second:
      m_TileIndex: 27
      m_TileSpriteIndex: 27
      m_TileMatrixIndex: 0
      m_TileColorIndex: 0
      m_ObjectToInstantiate: {fileID: 0}
      m_TileFlags: 1
      m_ColliderType: 1
  - first: {x: 0, y: -3, z: 0}
    second:
      m_TileIndex: 28
      m_TileSpriteIndex: 28
      m_TileMatrixIndex: 0
      m_TileColorIndex: 0
      m_ObjectToInstantiate: {fileID: 0}
      m_TileFlags: 1
      m_ColliderType: 1
  - first: {x: 1, y: -3, z: 0}
    second:
      m_TileIndex: 29
      m_TileSpriteIndex: 29
      m_TileMatrixIndex: 0
      m_TileColorIndex: 0
      m_ObjectToInstantiate: {fileID: 0}
      m_TileFlags: 1
      m_ColliderType: 1
  - first: {x: 2, y: -3, z: 0}
    second:
      m_TileIndex: 30
      m_TileSpriteIndex: 30
      m_TileMatrixIndex: 0
      m_TileColorIndex: 0
      m_ObjectToInstantiate: {fileID: 0}
      m_TileFlags: 1
      m_ColliderType: 1
  - first: {x: 3, y: -3, z: 0}
    second:
      m_TileIndex: 31
      m_TileSpriteIndex: 31
      m_TileMatrixIndex: 0
      m_TileColorIndex: 0
      m_ObjectToInstantiate: {fileID: 0}
      m_TileFlags: 1
      m_ColliderType: 1
  - first: {x: 4, y: -3, z: 0}
    second:
      m_TileIndex: 32
      m_TileSpriteIndex: 32
      m_TileMatrixIndex: 0
      m_TileColorIndex: 0
      m_ObjectToInstantiate: {fileID: 0}
      m_TileFlags: 1
      m_ColliderType: 1
  - first: {x: 5, y: -3, z: 0}
    second:
      m_TileIndex: 33
      m_TileSpriteIndex: 33
      m_TileMatrixIndex: 0
      m_TileColorIndex: 0
      m_ObjectToInstantiate: {fileID: 0}
      m_TileFlags: 1
      m_ColliderType: 1
  - first: {x: 6, y: -3, z: 0}
    second:
      m_TileIndex: 34
      m_TileSpriteIndex: 34
      m_TileMatrixIndex: 0
      m_TileColorIndex: 0
      m_ObjectToInstantiate: {fileID: 0}
      m_TileFlags: 1
      m_ColliderType: 1
  - first: {x: 7, y: -3, z: 0}
    second:
      m_TileIndex: 35
      m_TileSpriteIndex: 35
      m_TileMatrixIndex: 0
      m_TileColorIndex: 0
      m_ObjectToInstantiate: {fileID: 0}
      m_TileFlags: 1
      m_ColliderType: 1
  - first: {x: -1, y: -2, z: 0}
    second:
      m_TileIndex: 18
      m_TileSpriteIndex: 18
      m_TileMatrixIndex: 0
      m_TileColorIndex: 0
      m_ObjectToInstantiate: {fileID: 0}
      m_TileFlags: 1
      m_ColliderType: 1
  - first: {x: 0, y: -2, z: 0}
    second:
      m_TileIndex: 19
      m_TileSpriteIndex: 19
      m_TileMatrixIndex: 0
      m_TileColorIndex: 0
      m_ObjectToInstantiate: {fileID: 0}
      m_TileFlags: 1
      m_ColliderType: 1
  - first: {x: 1, y: -2, z: 0}
    second:
      m_TileIndex: 20
      m_TileSpriteIndex: 20
      m_TileMatrixIndex: 0
      m_TileColorIndex: 0
      m_ObjectToInstantiate: {fileID: 0}
      m_TileFlags: 1
      m_ColliderType: 1
  - first: {x: 2, y: -2, z: 0}
    second:
      m_TileIndex: 21
      m_TileSpriteIndex: 21
      m_TileMatrixIndex: 0
      m_TileColorIndex: 0
      m_ObjectToInstantiate: {fileID: 0}
      m_TileFlags: 1
      m_ColliderType: 1
  - first: {x: 3, y: -2, z: 0}
    second:
      m_TileIndex: 22
      m_TileSpriteIndex: 22
      m_TileMatrixIndex: 0
      m_TileColorIndex: 0
      m_ObjectToInstantiate: {fileID: 0}
      m_TileFlags: 1
      m_ColliderType: 1
  - first: {x: 4, y: -2, z: 0}
    second:
      m_TileIndex: 23
      m_TileSpriteIndex: 23
      m_TileMatrixIndex: 0
      m_TileColorIndex: 0
      m_ObjectToInstantiate: {fileID: 0}
      m_TileFlags: 1
      m_ColliderType: 1
  - first: {x: 5, y: -2, z: 0}
    second:
      m_TileIndex: 24
      m_TileSpriteIndex: 24
      m_TileMatrixIndex: 0
      m_TileColorIndex: 0
      m_ObjectToInstantiate: {fileID: 0}
      m_TileFlags: 1
      m_ColliderType: 1
  - first: {x: 6, y: -2, z: 0}
    second:
      m_TileIndex: 25
      m_TileSpriteIndex: 25
      m_TileMatrixIndex: 0
      m_TileColorIndex: 0
      m_ObjectToInstantiate: {fileID: 0}
      m_TileFlags: 1
      m_ColliderType: 1
  - first: {x: 7, y: -2, z: 0}
    second:
      m_TileIndex: 26
      m_TileSpriteIndex: 26
      m_TileMatrixIndex: 0
      m_TileColorIndex: 0
      m_ObjectToInstantiate: {fileID: 0}
      m_TileFlags: 1
      m_ColliderType: 1
  - first: {x: -1, y: -1, z: 0}
    second:
      m_TileIndex: 9
      m_TileSpriteIndex: 9
      m_TileMatrixIndex: 0
      m_TileColorIndex: 0
      m_ObjectToInstantiate: {fileID: 0}
      m_TileFlags: 1
      m_ColliderType: 1
  - first: {x: 0, y: -1, z: 0}
    second:
      m_TileIndex: 10
      m_TileSpriteIndex: 10
      m_TileMatrixIndex: 0
      m_TileColorIndex: 0
      m_ObjectToInstantiate: {fileID: 0}
      m_TileFlags: 1
      m_ColliderType: 1
  - first: {x: 1, y: -1, z: 0}
    second:
      m_TileIndex: 11
      m_TileSpriteIndex: 11
      m_TileMatrixIndex: 0
      m_TileColorIndex: 0
      m_ObjectToInstantiate: {fileID: 0}
      m_TileFlags: 1
      m_ColliderType: 1
  - first: {x: 2, y: -1, z: 0}
    second:
      m_TileIndex: 12
      m_TileSpriteIndex: 12
      m_TileMatrixIndex: 0
      m_TileColorIndex: 0
      m_ObjectToInstantiate: {fileID: 0}
      m_TileFlags: 1
      m_ColliderType: 1
  - first: {x: 3, y: -1, z: 0}
    second:
      m_TileIndex: 13
      m_TileSpriteIndex: 13
      m_TileMatrixIndex: 0
      m_TileColorIndex: 0
      m_ObjectToInstantiate: {fileID: 0}
      m_TileFlags: 1
      m_ColliderType: 1
  - first: {x: 4, y: -1, z: 0}
    second:
      m_TileIndex: 14
      m_TileSpriteIndex: 14
      m_TileMatrixIndex: 0
      m_TileColorIndex: 0
      m_ObjectToInstantiate: {fileID: 0}
      m_TileFlags: 1
      m_ColliderType: 1
  - first: {x: 5, y: -1, z: 0}
    second:
      m_TileIndex: 15
      m_TileSpriteIndex: 15
      m_TileMatrixIndex: 0
      m_TileColorIndex: 0
      m_ObjectToInstantiate: {fileID: 0}
      m_TileFlags: 1
      m_ColliderType: 1
  - first: {x: 6, y: -1, z: 0}
    second:
      m_TileIndex: 16
      m_TileSpriteIndex: 16
      m_TileMatrixIndex: 0
      m_TileColorIndex: 0
      m_ObjectToInstantiate: {fileID: 0}
      m_TileFlags: 1
      m_ColliderType: 1
  - first: {x: 7, y: -1, z: 0}
    second:
      m_TileIndex: 17
      m_TileSpriteIndex: 17
      m_TileMatrixIndex: 0
      m_TileColorIndex: 0
      m_ObjectToInstantiate: {fileID: 0}
      m_TileFlags: 1
      m_ColliderType: 1
  - first: {x: -1, y: 0, z: 0}
    second:
      m_TileIndex: 0
      m_TileSpriteIndex: 0
      m_TileMatrixIndex: 0
      m_TileColorIndex: 0
      m_ObjectToInstantiate: {fileID: 0}
      m_TileFlags: 1
      m_ColliderType: 1
  - first: {x: 0, y: 0, z: 0}
    second:
      m_TileIndex: 1
      m_TileSpriteIndex: 1
      m_TileMatrixIndex: 0
      m_TileColorIndex: 0
      m_ObjectToInstantiate: {fileID: 0}
      m_TileFlags: 1
      m_ColliderType: 1
  - first: {x: 1, y: 0, z: 0}
    second:
      m_TileIndex: 2
      m_TileSpriteIndex: 2
      m_TileMatrixIndex: 0
      m_TileColorIndex: 0
      m_ObjectToInstantiate: {fileID: 0}
      m_TileFlags: 1
      m_ColliderType: 1
  - first: {x: 2, y: 0, z: 0}
    second:
      m_TileIndex: 3
      m_TileSpriteIndex: 3
      m_TileMatrixIndex: 0
      m_TileColorIndex: 0
      m_ObjectToInstantiate: {fileID: 0}
      m_TileFlags: 1
      m_ColliderType: 1
  - first: {x: 3, y: 0, z: 0}
    second:
      m_TileIndex: 4
      m_TileSpriteIndex: 4
      m_TileMatrixIndex: 0
      m_TileColorIndex: 0
      m_ObjectToInstantiate: {fileID: 0}
      m_TileFlags: 1
      m_ColliderType: 1
  - first: {x: 4, y: 0, z: 0}
    second:
      m_TileIndex: 5
      m_TileSpriteIndex: 5
      m_TileMatrixIndex: 0
      m_TileColorIndex: 0
      m_ObjectToInstantiate: {fileID: 0}
      m_TileFlags: 1
      m_ColliderType: 1
  - first: {x: 5, y: 0, z: 0}
    second:
      m_TileIndex: 6
      m_TileSpriteIndex: 6
      m_TileMatrixIndex: 0
      m_TileColorIndex: 0
      m_ObjectToInstantiate: {fileID: 0}
      m_TileFlags: 1
      m_ColliderType: 1
  - first: {x: 6, y: 0, z: 0}
    second:
      m_TileIndex: 7
      m_TileSpriteIndex: 7
      m_TileMatrixIndex: 0
      m_TileColorIndex: 0
      m_ObjectToInstantiate: {fileID: 0}
      m_TileFlags: 1
      m_ColliderType: 1
  - first: {x: 7, y: 0, z: 0}
    second:
      m_TileIndex: 8
      m_TileSpriteIndex: 8
      m_TileMatrixIndex: 0
      m_TileColorIndex: 0
      m_ObjectToInstantiate: {fileID: 0}
      m_TileFlags: 1
      m_ColliderType: 1
  m_AnimatedTiles: {}
  m_TileAssetArray:
  - m_RefCount: 1
    m_Data: {fileID: 11400000, guid: 11772d079b7ca324d9eb5d7e6d44cec0, type: 2}
  - m_RefCount: 1
    m_Data: {fileID: 11400000, guid: a878e14d3b8fa4044b26f83b32779570, type: 2}
  - m_RefCount: 1
    m_Data: {fileID: 11400000, guid: 51bcdfd47d1f03c4384cf5eb19d8b26e, type: 2}
  - m_RefCount: 1
    m_Data: {fileID: 11400000, guid: cabd222f791dc0d4980121ab5dfe136f, type: 2}
  - m_RefCount: 1
    m_Data: {fileID: 11400000, guid: 543d4268bc810714fa427e9f3731e26c, type: 2}
  - m_RefCount: 1
    m_Data: {fileID: 11400000, guid: 7fe71cac54fcd2941b395889a6f64e30, type: 2}
  - m_RefCount: 1
    m_Data: {fileID: 11400000, guid: 4d7e0911f3875494badd2795b52e2dcc, type: 2}
  - m_RefCount: 1
    m_Data: {fileID: 11400000, guid: 119a1dd000e183e45b10931f60936f29, type: 2}
  - m_RefCount: 1
    m_Data: {fileID: 11400000, guid: 0e5d859e5de9e6b469f43728bcb08189, type: 2}
  - m_RefCount: 1
    m_Data: {fileID: 11400000, guid: 8ffe6e6ce478f12408b00829c9602b68, type: 2}
  - m_RefCount: 1
    m_Data: {fileID: 11400000, guid: 4e900bc7360d6364a9c8a77a334fa0bb, type: 2}
  - m_RefCount: 1
    m_Data: {fileID: 11400000, guid: 7bf9b70657b5b26488e2e634bd859bb1, type: 2}
  - m_RefCount: 1
    m_Data: {fileID: 11400000, guid: bf2b8484779645446a154c5be36c5680, type: 2}
  - m_RefCount: 1
    m_Data: {fileID: 11400000, guid: bf1b304c6cf59244b87cb127ee24effd, type: 2}
  - m_RefCount: 1
    m_Data: {fileID: 11400000, guid: 501a139fa37689e48bfb66f73ce4d2ff, type: 2}
  - m_RefCount: 1
    m_Data: {fileID: 11400000, guid: b11366adaecf14d459f22b92a58161ba, type: 2}
  - m_RefCount: 1
    m_Data: {fileID: 11400000, guid: 36b36a9185ec15d45b502263338efee2, type: 2}
  - m_RefCount: 1
    m_Data: {fileID: 11400000, guid: 2a43c2ab1f294554d9541d37cd1df7d6, type: 2}
  - m_RefCount: 1
    m_Data: {fileID: 11400000, guid: ecf402158dea6d24f91bd6a88a341e06, type: 2}
  - m_RefCount: 1
    m_Data: {fileID: 11400000, guid: 96a2b232d03e0d643a02fa70f39dd18a, type: 2}
  - m_RefCount: 1
    m_Data: {fileID: 11400000, guid: 625a2900038256748b5f25ca94629909, type: 2}
  - m_RefCount: 1
    m_Data: {fileID: 11400000, guid: 4e7f429666f52ac48bc391bfb97d447b, type: 2}
  - m_RefCount: 1
    m_Data: {fileID: 11400000, guid: 4e2751c83111bc347a0ecd1b181f27ad, type: 2}
  - m_RefCount: 1
    m_Data: {fileID: 11400000, guid: cc871c04f7380bb48af489674f33186c, type: 2}
  - m_RefCount: 1
    m_Data: {fileID: 11400000, guid: 829dc3aedecd4cc4d8f6aca26498e23a, type: 2}
  - m_RefCount: 1
    m_Data: {fileID: 11400000, guid: 539193d89c76f424398dc0e5ca4048f5, type: 2}
  - m_RefCount: 1
    m_Data: {fileID: 11400000, guid: 4319eefec07557248aa5819d130b0d83, type: 2}
  - m_RefCount: 1
    m_Data: {fileID: 11400000, guid: 6ee50b789a424604b8aa58afc2140d6e, type: 2}
  - m_RefCount: 1
    m_Data: {fileID: 11400000, guid: 4454ffc837a6f1840a11535a155581a0, type: 2}
  - m_RefCount: 1
    m_Data: {fileID: 11400000, guid: 1e207facbac08734abd7deca28d47af2, type: 2}
  - m_RefCount: 1
    m_Data: {fileID: 11400000, guid: 23c69896cefd6b149872bf885f4f03ee, type: 2}
  - m_RefCount: 1
    m_Data: {fileID: 11400000, guid: c55845aa0cba5a34a8303353ffa82db3, type: 2}
  - m_RefCount: 1
    m_Data: {fileID: 11400000, guid: 97dcf705532394741a0061f828538331, type: 2}
  - m_RefCount: 1
    m_Data: {fileID: 11400000, guid: 6b48c7e6b9882e0439efc1ead80d25da, type: 2}
  - m_RefCount: 1
    m_Data: {fileID: 11400000, guid: bb3b3c893a4220e438450eb1bd308a50, type: 2}
  - m_RefCount: 1
    m_Data: {fileID: 11400000, guid: c42942b7199e9a843a6ecd30701e8a52, type: 2}
  - m_RefCount: 1
    m_Data: {fileID: 11400000, guid: 1ab6914bbf1d6eb4a9c08bb32f85a616, type: 2}
  - m_RefCount: 1
    m_Data: {fileID: 11400000, guid: db9832cac7b3cc34c9ab9c5eef4b8700, type: 2}
  - m_RefCount: 1
    m_Data: {fileID: 11400000, guid: 194c6126db619564fbc33c7f7b91f458, type: 2}
  - m_RefCount: 1
    m_Data: {fileID: 11400000, guid: a58acb2bdc7743d4b83f8d34d3b59057, type: 2}
  - m_RefCount: 1
    m_Data: {fileID: 11400000, guid: 08665996c87466a4888ab49408657fb3, type: 2}
  - m_RefCount: 1
    m_Data: {fileID: 11400000, guid: eb0c8ff65fdc52c4485845e72fa82165, type: 2}
  - m_RefCount: 1
    m_Data: {fileID: 11400000, guid: 4c1f7f6a5848eca47a065d74151d2e5f, type: 2}
  - m_RefCount: 1
    m_Data: {fileID: 11400000, guid: 67fef80a3e531304fa9de6944e769a0a, type: 2}
  - m_RefCount: 1
    m_Data: {fileID: 11400000, guid: a8286127496ff0947b474e815d153f0b, type: 2}
  - m_RefCount: 1
    m_Data: {fileID: 11400000, guid: 1e00efe55050fb14fb4fc08e40ef6186, type: 2}
  - m_RefCount: 1
    m_Data: {fileID: 11400000, guid: a81aaac33c6109a45ad7ca57735e9f35, type: 2}
  - m_RefCount: 1
    m_Data: {fileID: 11400000, guid: 0a6e1b6983c935f46addc9a50a98df29, type: 2}
  - m_RefCount: 1
    m_Data: {fileID: 11400000, guid: 5ef4973fd5ae5d3458d108aa5b9b9c12, type: 2}
  - m_RefCount: 1
    m_Data: {fileID: 11400000, guid: 82ba7fc832c5f6d44bbedb8df2c48b60, type: 2}
  - m_RefCount: 1
    m_Data: {fileID: 11400000, guid: 9caa8f27cc172814ab196205f4c10787, type: 2}
  - m_RefCount: 1
    m_Data: {fileID: 11400000, guid: e5f434940e599b34da2a400e845b1509, type: 2}
  - m_RefCount: 1
    m_Data: {fileID: 11400000, guid: 9e43293d7437c9c4f8afaa45de133a26, type: 2}
  - m_RefCount: 1
    m_Data: {fileID: 11400000, guid: 13021ae6d5ed93b499f9efb59bfe7dd8, type: 2}
  - m_RefCount: 1
    m_Data: {fileID: 11400000, guid: 4b204bcbb1ac4324eade5b0cafe4e886, type: 2}
  - m_RefCount: 1
    m_Data: {fileID: 11400000, guid: a42b799629249eb4a8dd91793da7abeb, type: 2}
  - m_RefCount: 1
    m_Data: {fileID: 11400000, guid: 750c9f6a80877184fa1dd3b58c649fd3, type: 2}
  - m_RefCount: 1
    m_Data: {fileID: 11400000, guid: e0fc7ddb0ab1f6d4184e77d2e13b7b2f, type: 2}
  - m_RefCount: 1
    m_Data: {fileID: 11400000, guid: c4c5b51db03b95743aac7fe501f16a72, type: 2}
  - m_RefCount: 1
    m_Data: {fileID: 11400000, guid: 145160d5c224f074b8d314d202a54a77, type: 2}
  - m_RefCount: 1
    m_Data: {fileID: 11400000, guid: 1d78b9143e76b734692526b2cb11068a, type: 2}
  - m_RefCount: 1
    m_Data: {fileID: 11400000, guid: d5119db9a71861d4c8eaac0e9fe737f7, type: 2}
  - m_RefCount: 1
    m_Data: {fileID: 11400000, guid: d57ba6ad05a637f4a833f07f9beb9b37, type: 2}
  - m_RefCount: 1
    m_Data: {fileID: 11400000, guid: f39c92b2bc9b9be48acfbd1defdf3e80, type: 2}
  - m_RefCount: 1
    m_Data: {fileID: 11400000, guid: 1bd9fa34749b7034b93bae4e3666e9f0, type: 2}
  m_TileSpriteArray:
  - m_RefCount: 1
    m_Data: {fileID: 21300000, guid: f816720a9fee1034abe03e17eac6512d, type: 3}
  - m_RefCount: 1
    m_Data: {fileID: 21300000, guid: b6b1e85f1232ee745ad95d119041c240, type: 3}
  - m_RefCount: 1
    m_Data: {fileID: 21300000, guid: 67f8a8d735d6f2342b87574367c899ed, type: 3}
  - m_RefCount: 1
    m_Data: {fileID: 21300000, guid: 011ab010448fafb4e922556335dcabe3, type: 3}
  - m_RefCount: 1
    m_Data: {fileID: 21300000, guid: 5c68a0e912ab9cc4ca9bc6efa1a1bf74, type: 3}
  - m_RefCount: 1
    m_Data: {fileID: 21300000, guid: 1d1a8bca9e0a60a4bb418cbf882253db, type: 3}
  - m_RefCount: 1
    m_Data: {fileID: 21300000, guid: 5ccae81ff16669b46b0cda12a4d447ed, type: 3}
  - m_RefCount: 1
    m_Data: {fileID: 21300000, guid: 281f48fb053348d4c8cc559443bae307, type: 3}
  - m_RefCount: 1
    m_Data: {fileID: 21300000, guid: 3e20d3d2c3651b8408c40074e2290923, type: 3}
  - m_RefCount: 1
    m_Data: {fileID: 21300000, guid: 7d847f7c153b6b24b9f3c7cad88c3be3, type: 3}
  - m_RefCount: 1
    m_Data: {fileID: 21300000, guid: a7e1e29f2654f8e44a5b781cfacf1299, type: 3}
  - m_RefCount: 1
    m_Data: {fileID: 21300000, guid: 16ca6589a192d33439a9aa44f3aeff54, type: 3}
  - m_RefCount: 1
    m_Data: {fileID: 21300000, guid: 3b24816645cd9174e8e9552cd9a67a9d, type: 3}
  - m_RefCount: 1
    m_Data: {fileID: 21300000, guid: 8e5462b794c6f1c44a70fe3ac050de15, type: 3}
  - m_RefCount: 1
    m_Data: {fileID: 21300000, guid: 541ca1d198d5dd54aac055dc272071be, type: 3}
  - m_RefCount: 1
    m_Data: {fileID: 21300000, guid: 47aa1949a77ef4c4994be809be87263d, type: 3}
  - m_RefCount: 1
    m_Data: {fileID: 21300000, guid: e2f419f47ea5c1c4cbdb2ca1d120fbe7, type: 3}
  - m_RefCount: 1
    m_Data: {fileID: 21300000, guid: e91de7c7f2a0c3948ac64e45f223c0fc, type: 3}
  - m_RefCount: 1
    m_Data: {fileID: 21300000, guid: ce935a85f429f784b944657367197a35, type: 3}
  - m_RefCount: 1
    m_Data: {fileID: 21300000, guid: c4b59e9d4c5f1e74689cfb2f28d3714b, type: 3}
  - m_RefCount: 1
    m_Data: {fileID: 21300000, guid: 4d7088ed1aa4dd2418e87ff340640ef3, type: 3}
  - m_RefCount: 1
    m_Data: {fileID: 21300000, guid: 9e0d4f2bcc9573c488b2dce162e5860a, type: 3}
  - m_RefCount: 1
    m_Data: {fileID: 21300000, guid: c7f5dab7bb42a1b40ae49460d98cbb99, type: 3}
  - m_RefCount: 1
    m_Data: {fileID: 21300000, guid: 3f21ede16dbbc9c4a8c8aa5f2223a732, type: 3}
  - m_RefCount: 1
    m_Data: {fileID: 21300000, guid: 153ef6e28f2d98a4d998da29bd8366e1, type: 3}
  - m_RefCount: 1
    m_Data: {fileID: 21300000, guid: 1c75bade448fef44ab97adfdec1a3588, type: 3}
  - m_RefCount: 1
    m_Data: {fileID: 21300000, guid: b668a0effc2fad94d96eee80ee09f27c, type: 3}
  - m_RefCount: 1
    m_Data: {fileID: 21300000, guid: 20bd7e4db159eb547a4d0f148e6bd852, type: 3}
  - m_RefCount: 1
    m_Data: {fileID: 21300000, guid: d2e795de9b2a9874bb022b778188c4c1, type: 3}
  - m_RefCount: 1
    m_Data: {fileID: 21300000, guid: 128a9655c9899734eabff726a0703042, type: 3}
  - m_RefCount: 1
    m_Data: {fileID: 21300000, guid: 597507eb830a0804ea1922800ba2b300, type: 3}
  - m_RefCount: 1
    m_Data: {fileID: 21300000, guid: cd429ca7d01561441a83a111baf37b45, type: 3}
  - m_RefCount: 1
    m_Data: {fileID: 21300000, guid: bc6afe8bc62bc8a459cb8162c19e03cf, type: 3}
  - m_RefCount: 1
    m_Data: {fileID: 21300000, guid: d5c7b3f95fe615a4da736e0fb348f7c6, type: 3}
  - m_RefCount: 1
    m_Data: {fileID: 21300000, guid: c6172b3b9e0263f4aa8fd3fd2d88fabe, type: 3}
  - m_RefCount: 1
    m_Data: {fileID: 21300000, guid: d1b74403e16a07348a66c265c9cd8e8d, type: 3}
  - m_RefCount: 1
    m_Data: {fileID: 21300000, guid: fc254d122da55db49bcabf63d8b0c93e, type: 3}
  - m_RefCount: 1
    m_Data: {fileID: 21300000, guid: 43cb8eb1517bc0f498be1ecebf336887, type: 3}
  - m_RefCount: 1
    m_Data: {fileID: 21300000, guid: f8d29bbbf21959e4fad4e497b67ccc62, type: 3}
  - m_RefCount: 1
    m_Data: {fileID: 21300000, guid: 6c41738d608c73941bf7cfecd1ab06ff, type: 3}
  - m_RefCount: 1
    m_Data: {fileID: 21300000, guid: af3f73ee68163684480d7e484f9206f9, type: 3}
  - m_RefCount: 1
    m_Data: {fileID: 21300000, guid: 7b95bf1560afa4b499180d1d9f01da26, type: 3}
  - m_RefCount: 1
    m_Data: {fileID: 21300000, guid: a2397025abc36e2458dbdd5990483ce5, type: 3}
  - m_RefCount: 1
    m_Data: {fileID: 21300000, guid: 1128e7d7d584b3944ac69b0f456e922a, type: 3}
  - m_RefCount: 1
    m_Data: {fileID: 21300000, guid: 4c6e6ea514f056344ba665035305be96, type: 3}
  - m_RefCount: 1
    m_Data: {fileID: 21300000, guid: db7af07b81fc0164caeb4c98a7639b45, type: 3}
  - m_RefCount: 1
    m_Data: {fileID: 21300000, guid: 305cc36bdc3588048840e7257247d5ad, type: 3}
  - m_RefCount: 1
    m_Data: {fileID: 21300000, guid: bca5551339f64b54aba9b170763e12c8, type: 3}
  - m_RefCount: 1
    m_Data: {fileID: 21300000, guid: 03274264065ff3642a591eb32ec03964, type: 3}
  - m_RefCount: 1
    m_Data: {fileID: 21300000, guid: 762c240e5581b3a44a601d8d29f20520, type: 3}
  - m_RefCount: 1
    m_Data: {fileID: 21300000, guid: 6f51006b80eed324d84692a2dc4296a7, type: 3}
  - m_RefCount: 1
    m_Data: {fileID: 21300000, guid: 938bc56e56fb29343892f807a89a4d67, type: 3}
  - m_RefCount: 1
    m_Data: {fileID: 21300000, guid: 07bc2a701ee40494598c35b994812de7, type: 3}
  - m_RefCount: 1
    m_Data: {fileID: 21300000, guid: 9b2b8daea005800419bc4d96f8e60ea7, type: 3}
  - m_RefCount: 1
    m_Data: {fileID: 21300000, guid: 7dc1073031ee1e548bdc3221641d21b6, type: 3}
  - m_RefCount: 1
    m_Data: {fileID: 21300000, guid: a35eacd1d25e73b40847eeaa9417cec4, type: 3}
  - m_RefCount: 1
    m_Data: {fileID: 21300000, guid: 49c306916bcd4ea409668c633a2b5e2d, type: 3}
  - m_RefCount: 1
    m_Data: {fileID: 21300000, guid: 495d9037113a4a24db25148bcc634a0b, type: 3}
  - m_RefCount: 1
    m_Data: {fileID: 21300000, guid: fec63307ff5ed0043ac72915437fd9e9, type: 3}
  - m_RefCount: 1
    m_Data: {fileID: 21300000, guid: 3b2c2d9618fd3664b8653169f24588f9, type: 3}
  - m_RefCount: 1
    m_Data: {fileID: 21300000, guid: 14c1db2f641443845b1e6f08c42f8a90, type: 3}
  - m_RefCount: 1
    m_Data: {fileID: 21300000, guid: e7c627c6131b3de4ba2a8b7709370735, type: 3}
  - m_RefCount: 1
    m_Data: {fileID: 21300000, guid: 3b5998df897c1f14784eb5430aef2a8b, type: 3}
  - m_RefCount: 1
    m_Data: {fileID: 21300000, guid: 9bd3706b1ef105247a356d095e1a3f97, type: 3}
  - m_RefCount: 1
    m_Data: {fileID: 21300000, guid: 99c5394a8ecbff84e99913c7558e7651, type: 3}
  m_TileMatrixArray:
  - m_RefCount: 65
    m_Data:
      e00: 1
      e01: 0
      e02: 0
      e03: 0
      e10: 0
      e11: 1
      e12: 0
      e13: 0
      e20: 0
      e21: 0
      e22: 1
      e23: 0
      e30: 0
      e31: 0
      e32: 0
      e33: 1
  m_TileColorArray:
  - m_RefCount: 65
    m_Data: {r: 1, g: 1, b: 1, a: 1}
  m_AnimationFrameRate: 1
  m_Color: {r: 1, g: 1, b: 1, a: 1}
  m_Origin: {x: -1, y: -7, z: 0}
  m_Size: {x: 9, y: 8, z: 1}
  m_TileAnchor: {x: 0.5, y: 0.5, z: 0}
  m_TileOrientation: 0
  m_TileOrientationMatrix:
    e00: 1
    e01: 0
    e02: 0
    e03: 0
    e10: 0
    e11: 1
    e12: 0
    e13: 0
    e20: 0
    e21: 0
    e22: 1
    e23: 0
    e30: 0
    e31: 0
    e32: 0
    e33: 1
